…
## I can simulate a lot

``` r
output = vector("list", length = 100)

for(i in 1:100) {
  output[[i]] = sim_mean_sd(samp_size = 30)
}

bind_rows(output)
```

    ## # A tibble: 100 × 2
    ##     mean    sd
    ##    <dbl> <dbl>
    ##  1  3.53  3.18
    ##  2  3.44  3.84
    ##  3  3.45  3.53
    ##  4  1.68  3.69
    ##  5  3.95  4.22
    ##  6  3.27  4.34
    ##  7  2.05  4.05
    ##  8  3.10  3.72
    ##  9  3.55  4.11
    ## 10  3.87  3.79
    ## # … with 90 more rows
…
``` r
tibble(
  sample_size = c(30, 60, 120, 240)
)%>%
  mutate(
    output_lists = map(.x = sample_size, ~ rerun(100, sim_mean_sd(.x))),
    estimate_df = map(output_lists, bind_rows)
  ) %>% pull(estimate_df)
```

    ## [[1]]
    ## # A tibble: 100 × 2
    ##     mean    sd
    ##    <dbl> <dbl>
    ##  1  1.79  4.82
    ##  2  3.31  4.53
    ##  3  1.44  5.34
    ##  4  1.46  4.72
    ##  5  3.29  3.52
    ##  6  3.04  4.10
    ##  7  2.57  3.46
    ##  8  2.53  3.94
    ##  9  3.78  3.87
    ## 10  3.54  3.77
    ## # … with 90 more rows
    ## 
    ## [[2]]
    ## # A tibble: 100 × 2
    ##     mean    sd
    ##    <dbl> <dbl>
    ##  1  2.59  3.36
    ##  2  2.87  3.58
    ##  3  3.29  4.26
    ##  4  3.30  3.76
    ##  5  3.50  3.70
    ##  6  2.92  4.63
    ##  7  3.41  4.27
    ##  8  2.34  4.42
    ##  9  2.78  4.26
    ## 10  2.86  3.99
    ## # … with 90 more rows
    ## 
    ## [[3]]
    ## # A tibble: 100 × 2
    ##     mean    sd
    ##    <dbl> <dbl>
    ##  1  2.21  3.62
    ##  2  3.35  3.87
    ##  3  2.62  3.40
    ##  4  3.03  3.87
    ##  5  3.34  3.90
    ##  6  3.23  4.36
    ##  7  3.37  3.50
    ##  8  3.45  4.43
    ##  9  2.87  4.36
    ## 10  3.67  4.18
    ## # … with 90 more rows
    ## 
    ## [[4]]
    ## # A tibble: 100 × 2
    ##     mean    sd
    ##    <dbl> <dbl>
    ##  1  2.62  3.86
    ##  2  3.09  4.29
    ##  3  3.08  3.69
    ##  4  2.82  4.18
    ##  5  3.08  4.14
    ##  6  2.83  3.99
    ##  7  3.22  4.00
    ##  8  3.45  4.37
    ##  9  2.94  3.91
    ## 10  2.95  3.63
    ## # … with 90 more rows
…
